^C:\USERS\JULIAN\REPOS\CORE\DEP\LUALIB\LZIO.C
F:\VISUAL STUDIO\VC\INCLUDE\STRING.H
F:\VISUAL STUDIO\VC\INCLUDE\CRTDEFS.H
F:\VISUAL STUDIO\VC\INCLUDE\SAL.H
F:\VISUAL STUDIO\VC\INCLUDE\CODEANALYSIS\SOURCEANNOTATIONS.H
F:\VISUAL STUDIO\VC\INCLUDE\VADEFS.H
C:\USERS\JULIAN\REPOS\CORE\DEP\LUALIB\LUA.H
F:\VISUAL STUDIO\VC\INCLUDE\STDARG.H
F:\VISUAL STUDIO\VC\INCLUDE\STDDEF.H
C:\USERS\JULIAN\REPOS\CORE\DEP\LUALIB\LUACONF.H
F:\VISUAL STUDIO\VC\INCLUDE\LIMITS.H
C:\USERS\JULIAN\REPOS\CORE\DEP\LUALIB\LLIMITS.H
C:\USERS\JULIAN\REPOS\CORE\DEP\LUALIB\LMEM.H
C:\USERS\JULIAN\REPOS\CORE\DEP\LUALIB\LSTATE.H
C:\USERS\JULIAN\REPOS\CORE\DEP\LUALIB\LOBJECT.H
C:\USERS\JULIAN\REPOS\CORE\DEP\LUALIB\LTM.H
C:\USERS\JULIAN\REPOS\CORE\DEP\LUALIB\LZIO.H
^C:\USERS\JULIAN\REPOS\CORE\DEP\LUALIB\LVM.C
F:\VISUAL STUDIO\VC\INCLUDE\STDIO.H
F:\VISUAL STUDIO\VC\INCLUDE\CRTDEFS.H
F:\VISUAL STUDIO\VC\INCLUDE\SAL.H
F:\VISUAL STUDIO\VC\INCLUDE\CODEANALYSIS\SOURCEANNOTATIONS.H
F:\VISUAL STUDIO\VC\INCLUDE\VADEFS.H
F:\VISUAL STUDIO\VC\INCLUDE\SWPRINTF.INL
F:\VISUAL STUDIO\VC\INCLUDE\STDLIB.H
F:\VISUAL STUDIO\VC\INCLUDE\LIMITS.H
F:\VISUAL STUDIO\VC\INCLUDE\STRING.H
C:\USERS\JULIAN\REPOS\CORE\DEP\LUALIB\LUA.H
F:\VISUAL STUDIO\VC\INCLUDE\STDARG.H
F:\VISUAL STUDIO\VC\INCLUDE\STDDEF.H
C:\USERS\JULIAN\REPOS\CORE\DEP\LUALIB\LUACONF.H
F:\VISUAL STUDIO\VC\INCLUDE\MATH.H
C:\USERS\JULIAN\REPOS\CORE\DEP\LUALIB\LDEBUG.H
C:\USERS\JULIAN\REPOS\CORE\DEP\LUALIB\LSTATE.H
C:\USERS\JULIAN\REPOS\CORE\DEP\LUALIB\LOBJECT.H
C:\USERS\JULIAN\REPOS\CORE\DEP\LUALIB\LLIMITS.H
C:\USERS\JULIAN\REPOS\CORE\DEP\LUALIB\LTM.H
C:\USERS\JULIAN\REPOS\CORE\DEP\LUALIB\LZIO.H
C:\USERS\JULIAN\REPOS\CORE\DEP\LUALIB\LMEM.H
C:\USERS\JULIAN\REPOS\CORE\DEP\LUALIB\LDO.H
C:\USERS\JULIAN\REPOS\CORE\DEP\LUALIB\LFUNC.H
C:\USERS\JULIAN\REPOS\CORE\DEP\LUALIB\LGC.H
C:\USERS\JULIAN\REPOS\CORE\DEP\LUALIB\LOPCODES.H
C:\USERS\JULIAN\REPOS\CORE\DEP\LUALIB\LSTRING.H
C:\USERS\JULIAN\REPOS\CORE\DEP\LUALIB\LTABLE.H
C:\USERS\JULIAN\REPOS\CORE\DEP\LUALIB\LVM.H
^C:\USERS\JULIAN\REPOS\CORE\DEP\LUALIB\LUNDUMP.C
F:\VISUAL STUDIO\VC\INCLUDE\STRING.H
F:\VISUAL STUDIO\VC\INCLUDE\CRTDEFS.H
F:\VISUAL STUDIO\VC\INCLUDE\SAL.H
F:\VISUAL STUDIO\VC\INCLUDE\CODEANALYSIS\SOURCEANNOTATIONS.H
F:\VISUAL STUDIO\VC\INCLUDE\VADEFS.H
C:\USERS\JULIAN\REPOS\CORE\DEP\LUALIB\LUA.H
F:\VISUAL STUDIO\VC\INCLUDE\STDARG.H
F:\VISUAL STUDIO\VC\INCLUDE\STDDEF.H
C:\USERS\JULIAN\REPOS\CORE\DEP\LUALIB\LUACONF.H
F:\VISUAL STUDIO\VC\INCLUDE\LIMITS.H
C:\USERS\JULIAN\REPOS\CORE\DEP\LUALIB\LDEBUG.H
C:\USERS\JULIAN\REPOS\CORE\DEP\LUALIB\LSTATE.H
C:\USERS\JULIAN\REPOS\CORE\DEP\LUALIB\LOBJECT.H
C:\USERS\JULIAN\REPOS\CORE\DEP\LUALIB\LLIMITS.H
C:\USERS\JULIAN\REPOS\CORE\DEP\LUALIB\LTM.H
C:\USERS\JULIAN\REPOS\CORE\DEP\LUALIB\LZIO.H
C:\USERS\JULIAN\REPOS\CORE\DEP\LUALIB\LMEM.H
C:\USERS\JULIAN\REPOS\CORE\DEP\LUALIB\LDO.H
C:\USERS\JULIAN\REPOS\CORE\DEP\LUALIB\LFUNC.H
C:\USERS\JULIAN\REPOS\CORE\DEP\LUALIB\LSTRING.H
C:\USERS\JULIAN\REPOS\CORE\DEP\LUALIB\LGC.H
C:\USERS\JULIAN\REPOS\CORE\DEP\LUALIB\LUNDUMP.H
^C:\USERS\JULIAN\REPOS\CORE\DEP\LUALIB\LUA.C
F:\VISUAL STUDIO\VC\INCLUDE\SIGNAL.H
F:\VISUAL STUDIO\VC\INCLUDE\CRTDEFS.H
F:\VISUAL STUDIO\VC\INCLUDE\SAL.H
F:\VISUAL STUDIO\VC\INCLUDE\CODEANALYSIS\SOURCEANNOTATIONS.H
F:\VISUAL STUDIO\VC\INCLUDE\VADEFS.H
F:\VISUAL STUDIO\VC\INCLUDE\STDIO.H
F:\VISUAL STUDIO\VC\INCLUDE\SWPRINTF.INL
F:\VISUAL STUDIO\VC\INCLUDE\STDLIB.H
F:\VISUAL STUDIO\VC\INCLUDE\LIMITS.H
F:\VISUAL STUDIO\VC\INCLUDE\STRING.H
C:\USERS\JULIAN\REPOS\CORE\DEP\LUALIB\LUA.H
F:\VISUAL STUDIO\VC\INCLUDE\STDARG.H
F:\VISUAL STUDIO\VC\INCLUDE\STDDEF.H
C:\USERS\JULIAN\REPOS\CORE\DEP\LUALIB\LUACONF.H
C:\USERS\JULIAN\REPOS\CORE\DEP\LUALIB\LAUXLIB.H
C:\USERS\JULIAN\REPOS\CORE\DEP\LUALIB\LUALIB.H
F:\VISUAL STUDIO\VC\INCLUDE\IO.H
^C:\USERS\JULIAN\REPOS\CORE\DEP\LUALIB\LTM.C
F:\VISUAL STUDIO\VC\INCLUDE\STRING.H
F:\VISUAL STUDIO\VC\INCLUDE\CRTDEFS.H
F:\VISUAL STUDIO\VC\INCLUDE\SAL.H
F:\VISUAL STUDIO\VC\INCLUDE\CODEANALYSIS\SOURCEANNOTATIONS.H
F:\VISUAL STUDIO\VC\INCLUDE\VADEFS.H
C:\USERS\JULIAN\REPOS\CORE\DEP\LUALIB\LUA.H
F:\VISUAL STUDIO\VC\INCLUDE\STDARG.H
F:\VISUAL STUDIO\VC\INCLUDE\STDDEF.H
C:\USERS\JULIAN\REPOS\CORE\DEP\LUALIB\LUACONF.H
F:\VISUAL STUDIO\VC\INCLUDE\LIMITS.H
C:\USERS\JULIAN\REPOS\CORE\DEP\LUALIB\LOBJECT.H
C:\USERS\JULIAN\REPOS\CORE\DEP\LUALIB\LLIMITS.H
C:\USERS\JULIAN\REPOS\CORE\DEP\LUALIB\LSTATE.H
C:\USERS\JULIAN\REPOS\CORE\DEP\LUALIB\LTM.H
C:\USERS\JULIAN\REPOS\CORE\DEP\LUALIB\LZIO.H
C:\USERS\JULIAN\REPOS\CORE\DEP\LUALIB\LMEM.H
C:\USERS\JULIAN\REPOS\CORE\DEP\LUALIB\LSTRING.H
C:\USERS\JULIAN\REPOS\CORE\DEP\LUALIB\LGC.H
C:\USERS\JULIAN\REPOS\CORE\DEP\LUALIB\LTABLE.H
^C:\USERS\JULIAN\REPOS\CORE\DEP\LUALIB\LTABLIB.C
F:\VISUAL STUDIO\VC\INCLUDE\STDDEF.H
F:\VISUAL STUDIO\VC\INCLUDE\CRTDEFS.H
F:\VISUAL STUDIO\VC\INCLUDE\SAL.H
F:\VISUAL STUDIO\VC\INCLUDE\CODEANALYSIS\SOURCEANNOTATIONS.H
F:\VISUAL STUDIO\VC\INCLUDE\VADEFS.H
C:\USERS\JULIAN\REPOS\CORE\DEP\LUALIB\LUA.H
F:\VISUAL STUDIO\VC\INCLUDE\STDARG.H
C:\USERS\JULIAN\REPOS\CORE\DEP\LUALIB\LUACONF.H
F:\VISUAL STUDIO\VC\INCLUDE\LIMITS.H
F:\VISUAL STUDIO\VC\INCLUDE\STDIO.H
F:\VISUAL STUDIO\VC\INCLUDE\SWPRINTF.INL
C:\USERS\JULIAN\REPOS\CORE\DEP\LUALIB\LAUXLIB.H
C:\USERS\JULIAN\REPOS\CORE\DEP\LUALIB\LUALIB.H
^C:\USERS\JULIAN\REPOS\CORE\DEP\LUALIB\LTABLE.C
F:\VISUAL STUDIO\VC\INCLUDE\STRING.H
F:\VISUAL STUDIO\VC\INCLUDE\CRTDEFS.H
F:\VISUAL STUDIO\VC\INCLUDE\SAL.H
F:\VISUAL STUDIO\VC\INCLUDE\CODEANALYSIS\SOURCEANNOTATIONS.H
F:\VISUAL STUDIO\VC\INCLUDE\VADEFS.H
C:\USERS\JULIAN\REPOS\CORE\DEP\LUALIB\LUA.H
F:\VISUAL STUDIO\VC\INCLUDE\STDARG.H
F:\VISUAL STUDIO\VC\INCLUDE\STDDEF.H
C:\USERS\JULIAN\REPOS\CORE\DEP\LUALIB\LUACONF.H
F:\VISUAL STUDIO\VC\INCLUDE\LIMITS.H
C:\USERS\JULIAN\REPOS\CORE\DEP\LUALIB\LDEBUG.H
C:\USERS\JULIAN\REPOS\CORE\DEP\LUALIB\LSTATE.H
C:\USERS\JULIAN\REPOS\CORE\DEP\LUALIB\LOBJECT.H
C:\USERS\JULIAN\REPOS\CORE\DEP\LUALIB\LLIMITS.H
F:\VISUAL STUDIO\VC\INCLUDE\FLOAT.H
F:\VISUAL STUDIO\VC\INCLUDE\CRTWRN.H
F:\VISUAL STUDIO\VC\INCLUDE\MATH.H
C:\USERS\JULIAN\REPOS\CORE\DEP\LUALIB\LTM.H
C:\USERS\JULIAN\REPOS\CORE\DEP\LUALIB\LZIO.H
C:\USERS\JULIAN\REPOS\CORE\DEP\LUALIB\LMEM.H
C:\USERS\JULIAN\REPOS\CORE\DEP\LUALIB\LDO.H
C:\USERS\JULIAN\REPOS\CORE\DEP\LUALIB\LGC.H
C:\USERS\JULIAN\REPOS\CORE\DEP\LUALIB\LSTRING.H
C:\USERS\JULIAN\REPOS\CORE\DEP\LUALIB\LTABLE.H
C:\USERS\JULIAN\REPOS\CORE\DEP\LUALIB\LVM.H
^C:\USERS\JULIAN\REPOS\CORE\DEP\LUALIB\LSTRLIB.C
F:\VISUAL STUDIO\VC\INCLUDE\CTYPE.H
F:\VISUAL STUDIO\VC\INCLUDE\CRTDEFS.H
F:\VISUAL STUDIO\VC\INCLUDE\SAL.H
F:\VISUAL STUDIO\VC\INCLUDE\CODEANALYSIS\SOURCEANNOTATIONS.H
F:\VISUAL STUDIO\VC\INCLUDE\VADEFS.H
F:\VISUAL STUDIO\VC\INCLUDE\STDDEF.H
F:\VISUAL STUDIO\VC\INCLUDE\STDIO.H
F:\VISUAL STUDIO\VC\INCLUDE\SWPRINTF.INL
F:\VISUAL STUDIO\VC\INCLUDE\STDLIB.H
F:\VISUAL STUDIO\VC\INCLUDE\LIMITS.H
F:\VISUAL STUDIO\VC\INCLUDE\STRING.H
C:\USERS\JULIAN\REPOS\CORE\DEP\LUALIB\LUA.H
F:\VISUAL STUDIO\VC\INCLUDE\STDARG.H
C:\USERS\JULIAN\REPOS\CORE\DEP\LUALIB\LUACONF.H
C:\USERS\JULIAN\REPOS\CORE\DEP\LUALIB\LAUXLIB.H
C:\USERS\JULIAN\REPOS\CORE\DEP\LUALIB\LUALIB.H
^C:\USERS\JULIAN\REPOS\CORE\DEP\LUALIB\LSTRING.C
F:\VISUAL STUDIO\VC\INCLUDE\STRING.H
F:\VISUAL STUDIO\VC\INCLUDE\CRTDEFS.H
F:\VISUAL STUDIO\VC\INCLUDE\SAL.H
F:\VISUAL STUDIO\VC\INCLUDE\CODEANALYSIS\SOURCEANNOTATIONS.H
F:\VISUAL STUDIO\VC\INCLUDE\VADEFS.H
C:\USERS\JULIAN\REPOS\CORE\DEP\LUALIB\LUA.H
F:\VISUAL STUDIO\VC\INCLUDE\STDARG.H
F:\VISUAL STUDIO\VC\INCLUDE\STDDEF.H
C:\USERS\JULIAN\REPOS\CORE\DEP\LUALIB\LUACONF.H
F:\VISUAL STUDIO\VC\INCLUDE\LIMITS.H
C:\USERS\JULIAN\REPOS\CORE\DEP\LUALIB\LMEM.H
C:\USERS\JULIAN\REPOS\CORE\DEP\LUALIB\LLIMITS.H
C:\USERS\JULIAN\REPOS\CORE\DEP\LUALIB\LOBJECT.H
C:\USERS\JULIAN\REPOS\CORE\DEP\LUALIB\LSTATE.H
C:\USERS\JULIAN\REPOS\CORE\DEP\LUALIB\LTM.H
C:\USERS\JULIAN\REPOS\CORE\DEP\LUALIB\LZIO.H
C:\USERS\JULIAN\REPOS\CORE\DEP\LUALIB\LSTRING.H
C:\USERS\JULIAN\REPOS\CORE\DEP\LUALIB\LGC.H
^C:\USERS\JULIAN\REPOS\CORE\DEP\LUALIB\LSTATE.C
F:\VISUAL STUDIO\VC\INCLUDE\STDDEF.H
F:\VISUAL STUDIO\VC\INCLUDE\CRTDEFS.H
F:\VISUAL STUDIO\VC\INCLUDE\SAL.H
F:\VISUAL STUDIO\VC\INCLUDE\CODEANALYSIS\SOURCEANNOTATIONS.H
F:\VISUAL STUDIO\VC\INCLUDE\VADEFS.H
F:\VISUAL STUDIO\VC\INCLUDE\STRING.H
C:\USERS\JULIAN\REPOS\CORE\DEP\LUALIB\LUA.H
F:\VISUAL STUDIO\VC\INCLUDE\STDARG.H
C:\USERS\JULIAN\REPOS\CORE\DEP\LUALIB\LUACONF.H
F:\VISUAL STUDIO\VC\INCLUDE\LIMITS.H
C:\USERS\JULIAN\REPOS\CORE\DEP\LUALIB\LAPI.H
C:\USERS\JULIAN\REPOS\CORE\DEP\LUALIB\LLIMITS.H
C:\USERS\JULIAN\REPOS\CORE\DEP\LUALIB\LSTATE.H
C:\USERS\JULIAN\REPOS\CORE\DEP\LUALIB\LOBJECT.H
C:\USERS\JULIAN\REPOS\CORE\DEP\LUALIB\LTM.H
C:\USERS\JULIAN\REPOS\CORE\DEP\LUALIB\LZIO.H
C:\USERS\JULIAN\REPOS\CORE\DEP\LUALIB\LMEM.H
C:\USERS\JULIAN\REPOS\CORE\DEP\LUALIB\LDEBUG.H
C:\USERS\JULIAN\REPOS\CORE\DEP\LUALIB\LDO.H
C:\USERS\JULIAN\REPOS\CORE\DEP\LUALIB\LFUNC.H
C:\USERS\JULIAN\REPOS\CORE\DEP\LUALIB\LGC.H
C:\USERS\JULIAN\REPOS\CORE\DEP\LUALIB\LLEX.H
C:\USERS\JULIAN\REPOS\CORE\DEP\LUALIB\LSTRING.H
C:\USERS\JULIAN\REPOS\CORE\DEP\LUALIB\LTABLE.H
F:\VISUAL STUDIO\VC\INCLUDE\TIME.H
F:\VISUAL STUDIO\VC\INCLUDE\WTIME.INL
F:\VISUAL STUDIO\VC\INCLUDE\TIME.INL
^C:\USERS\JULIAN\REPOS\CORE\DEP\LUALIB\LPARSER.C
F:\VISUAL STUDIO\VC\INCLUDE\STRING.H
F:\VISUAL STUDIO\VC\INCLUDE\CRTDEFS.H
F:\VISUAL STUDIO\VC\INCLUDE\SAL.H
F:\VISUAL STUDIO\VC\INCLUDE\CODEANALYSIS\SOURCEANNOTATIONS.H
F:\VISUAL STUDIO\VC\INCLUDE\VADEFS.H
C:\USERS\JULIAN\REPOS\CORE\DEP\LUALIB\LUA.H
F:\VISUAL STUDIO\VC\INCLUDE\STDARG.H
F:\VISUAL STUDIO\VC\INCLUDE\STDDEF.H
C:\USERS\JULIAN\REPOS\CORE\DEP\LUALIB\LUACONF.H
F:\VISUAL STUDIO\VC\INCLUDE\LIMITS.H
C:\USERS\JULIAN\REPOS\CORE\DEP\LUALIB\LCODE.H
C:\USERS\JULIAN\REPOS\CORE\DEP\LUALIB\LLEX.H
C:\USERS\JULIAN\REPOS\CORE\DEP\LUALIB\LOBJECT.H
C:\USERS\JULIAN\REPOS\CORE\DEP\LUALIB\LLIMITS.H
C:\USERS\JULIAN\REPOS\CORE\DEP\LUALIB\LZIO.H
C:\USERS\JULIAN\REPOS\CORE\DEP\LUALIB\LMEM.H
C:\USERS\JULIAN\REPOS\CORE\DEP\LUALIB\LOPCODES.H
C:\USERS\JULIAN\REPOS\CORE\DEP\LUALIB\LPARSER.H
C:\USERS\JULIAN\REPOS\CORE\DEP\LUALIB\LDEBUG.H
C:\USERS\JULIAN\REPOS\CORE\DEP\LUALIB\LSTATE.H
C:\USERS\JULIAN\REPOS\CORE\DEP\LUALIB\LTM.H
C:\USERS\JULIAN\REPOS\CORE\DEP\LUALIB\LDO.H
C:\USERS\JULIAN\REPOS\CORE\DEP\LUALIB\LFUNC.H
C:\USERS\JULIAN\REPOS\CORE\DEP\LUALIB\LSTRING.H
C:\USERS\JULIAN\REPOS\CORE\DEP\LUALIB\LGC.H
C:\USERS\JULIAN\REPOS\CORE\DEP\LUALIB\LTABLE.H
^C:\USERS\JULIAN\REPOS\CORE\DEP\LUALIB\LOSLIB.C
F:\VISUAL STUDIO\VC\INCLUDE\ERRNO.H
F:\VISUAL STUDIO\VC\INCLUDE\CRTDEFS.H
F:\VISUAL STUDIO\VC\INCLUDE\SAL.H
F:\VISUAL STUDIO\VC\INCLUDE\CODEANALYSIS\SOURCEANNOTATIONS.H
F:\VISUAL STUDIO\VC\INCLUDE\VADEFS.H
F:\VISUAL STUDIO\VC\INCLUDE\LOCALE.H
F:\VISUAL STUDIO\VC\INCLUDE\STDLIB.H
F:\VISUAL STUDIO\VC\INCLUDE\LIMITS.H
F:\VISUAL STUDIO\VC\INCLUDE\STRING.H
F:\VISUAL STUDIO\VC\INCLUDE\TIME.H
F:\VISUAL STUDIO\VC\INCLUDE\WTIME.INL
F:\VISUAL STUDIO\VC\INCLUDE\TIME.INL
C:\USERS\JULIAN\REPOS\CORE\DEP\LUALIB\LUA.H
F:\VISUAL STUDIO\VC\INCLUDE\STDARG.H
F:\VISUAL STUDIO\VC\INCLUDE\STDDEF.H
C:\USERS\JULIAN\REPOS\CORE\DEP\LUALIB\LUACONF.H
F:\VISUAL STUDIO\VC\INCLUDE\STDIO.H
F:\VISUAL STUDIO\VC\INCLUDE\SWPRINTF.INL
C:\USERS\JULIAN\REPOS\CORE\DEP\LUALIB\LAUXLIB.H
C:\USERS\JULIAN\REPOS\CORE\DEP\LUALIB\LUALIB.H
^C:\USERS\JULIAN\REPOS\CORE\DEP\LUALIB\LOPCODES.C
C:\USERS\JULIAN\REPOS\CORE\DEP\LUALIB\LOPCODES.H
C:\USERS\JULIAN\REPOS\CORE\DEP\LUALIB\LLIMITS.H
F:\VISUAL STUDIO\VC\INCLUDE\LIMITS.H
F:\VISUAL STUDIO\VC\INCLUDE\CRTDEFS.H
F:\VISUAL STUDIO\VC\INCLUDE\SAL.H
F:\VISUAL STUDIO\VC\INCLUDE\CODEANALYSIS\SOURCEANNOTATIONS.H
F:\VISUAL STUDIO\VC\INCLUDE\VADEFS.H
F:\VISUAL STUDIO\VC\INCLUDE\STDDEF.H
C:\USERS\JULIAN\REPOS\CORE\DEP\LUALIB\LUA.H
F:\VISUAL STUDIO\VC\INCLUDE\STDARG.H
C:\USERS\JULIAN\REPOS\CORE\DEP\LUALIB\LUACONF.H
^C:\USERS\JULIAN\REPOS\CORE\DEP\LUALIB\LOBJECT.C
F:\VISUAL STUDIO\VC\INCLUDE\STDARG.H
F:\VISUAL STUDIO\VC\INCLUDE\VADEFS.H
F:\VISUAL STUDIO\VC\INCLUDE\STDIO.H
F:\VISUAL STUDIO\VC\INCLUDE\CRTDEFS.H
F:\VISUAL STUDIO\VC\INCLUDE\SAL.H
F:\VISUAL STUDIO\VC\INCLUDE\CODEANALYSIS\SOURCEANNOTATIONS.H
F:\VISUAL STUDIO\VC\INCLUDE\SWPRINTF.INL
F:\VISUAL STUDIO\VC\INCLUDE\STDLIB.H
F:\VISUAL STUDIO\VC\INCLUDE\LIMITS.H
F:\VISUAL STUDIO\VC\INCLUDE\STRING.H
C:\USERS\JULIAN\REPOS\CORE\DEP\LUALIB\LUA.H
F:\VISUAL STUDIO\VC\INCLUDE\STDDEF.H
C:\USERS\JULIAN\REPOS\CORE\DEP\LUALIB\LUACONF.H
F:\VISUAL STUDIO\VC\INCLUDE\MATH.H
C:\USERS\JULIAN\REPOS\CORE\DEP\LUALIB\LCTYPE.H
C:\USERS\JULIAN\REPOS\CORE\DEP\LUALIB\LLIMITS.H
C:\USERS\JULIAN\REPOS\CORE\DEP\LUALIB\LDEBUG.H
C:\USERS\JULIAN\REPOS\CORE\DEP\LUALIB\LSTATE.H
C:\USERS\JULIAN\REPOS\CORE\DEP\LUALIB\LOBJECT.H
C:\USERS\JULIAN\REPOS\CORE\DEP\LUALIB\LTM.H
C:\USERS\JULIAN\REPOS\CORE\DEP\LUALIB\LZIO.H
C:\USERS\JULIAN\REPOS\CORE\DEP\LUALIB\LMEM.H
C:\USERS\JULIAN\REPOS\CORE\DEP\LUALIB\LDO.H
C:\USERS\JULIAN\REPOS\CORE\DEP\LUALIB\LSTRING.H
C:\USERS\JULIAN\REPOS\CORE\DEP\LUALIB\LGC.H
C:\USERS\JULIAN\REPOS\CORE\DEP\LUALIB\LVM.H
^C:\USERS\JULIAN\REPOS\CORE\DEP\LUALIB\LOADLIB.C
C:\PROGRAM FILES (X86)\MICROSOFT SDKS\WINDOWS\V7.0A\INCLUDE\WINDOWS.H
C:\PROGRAM FILES (X86)\MICROSOFT SDKS\WINDOWS\V7.0A\INCLUDE\SDKDDKVER.H
F:\VISUAL STUDIO\VC\INCLUDE\EXCPT.H
F:\VISUAL STUDIO\VC\INCLUDE\CRTDEFS.H
F:\VISUAL STUDIO\VC\INCLUDE\SAL.H
F:\VISUAL STUDIO\VC\INCLUDE\CODEANALYSIS\SOURCEANNOTATIONS.H
F:\VISUAL STUDIO\VC\INCLUDE\VADEFS.H
F:\VISUAL STUDIO\VC\INCLUDE\STDARG.H
C:\PROGRAM FILES (X86)\MICROSOFT SDKS\WINDOWS\V7.0A\INCLUDE\WINDEF.H
C:\PROGRAM FILES (X86)\MICROSOFT SDKS\WINDOWS\V7.0A\INCLUDE\WINNT.H
F:\VISUAL STUDIO\VC\INCLUDE\CTYPE.H
C:\PROGRAM FILES (X86)\MICROSOFT SDKS\WINDOWS\V7.0A\INCLUDE\SPECSTRINGS.H
C:\PROGRAM FILES (X86)\MICROSOFT SDKS\WINDOWS\V7.0A\INCLUDE\SAL_SUPP.H
C:\PROGRAM FILES (X86)\MICROSOFT SDKS\WINDOWS\V7.0A\INCLUDE\SPECSTRINGS_SUPP.H
C:\PROGRAM FILES (X86)\MICROSOFT SDKS\WINDOWS\V7.0A\INCLUDE\SPECSTRINGS_STRICT.H
C:\PROGRAM FILES (X86)\MICROSOFT SDKS\WINDOWS\V7.0A\INCLUDE\SPECSTRINGS_UNDEF.H
C:\PROGRAM FILES (X86)\MICROSOFT SDKS\WINDOWS\V7.0A\INCLUDE\DRIVERSPECS.H
C:\PROGRAM FILES (X86)\MICROSOFT SDKS\WINDOWS\V7.0A\INCLUDE\SDV_DRIVERSPECS.H
C:\PROGRAM FILES (X86)\MICROSOFT SDKS\WINDOWS\V7.0A\INCLUDE\KERNELSPECS.H
C:\PROGRAM FILES (X86)\MICROSOFT SDKS\WINDOWS\V7.0A\INCLUDE\BASETSD.H
C:\PROGRAM FILES (X86)\MICROSOFT SDKS\WINDOWS\V7.0A\INCLUDE\GUIDDEF.H
F:\VISUAL STUDIO\VC\INCLUDE\STRING.H
C:\PROGRAM FILES (X86)\MICROSOFT SDKS\WINDOWS\V7.0A\INCLUDE\PSHPACK4.H
C:\PROGRAM FILES (X86)\MICROSOFT SDKS\WINDOWS\V7.0A\INCLUDE\POPPACK.H
C:\PROGRAM FILES (X86)\MICROSOFT SDKS\WINDOWS\V7.0A\INCLUDE\PSHPACK2.H
C:\PROGRAM FILES (X86)\MICROSOFT SDKS\WINDOWS\V7.0A\INCLUDE\PSHPACK8.H
C:\PROGRAM FILES (X86)\MICROSOFT SDKS\WINDOWS\V7.0A\INCLUDE\KTMTYPES.H
C:\PROGRAM FILES (X86)\MICROSOFT SDKS\WINDOWS\V7.0A\INCLUDE\WINBASE.H
C:\PROGRAM FILES (X86)\MICROSOFT SDKS\WINDOWS\V7.0A\INCLUDE\WINERROR.H
C:\PROGRAM FILES (X86)\MICROSOFT SDKS\WINDOWS\V7.0A\INCLUDE\WINGDI.H
C:\PROGRAM FILES (X86)\MICROSOFT SDKS\WINDOWS\V7.0A\INCLUDE\PSHPACK1.H
C:\PROGRAM FILES (X86)\MICROSOFT SDKS\WINDOWS\V7.0A\INCLUDE\WINUSER.H
C:\PROGRAM FILES (X86)\MICROSOFT SDKS\WINDOWS\V7.0A\INCLUDE\TVOUT.H
C:\PROGRAM FILES (X86)\MICROSOFT SDKS\WINDOWS\V7.0A\INCLUDE\WINNLS.H
C:\PROGRAM FILES (X86)\MICROSOFT SDKS\WINDOWS\V7.0A\INCLUDE\WINCON.H
C:\PROGRAM FILES (X86)\MICROSOFT SDKS\WINDOWS\V7.0A\INCLUDE\WINVER.H
C:\PROGRAM FILES (X86)\MICROSOFT SDKS\WINDOWS\V7.0A\INCLUDE\VERRSRC.H
C:\PROGRAM FILES (X86)\MICROSOFT SDKS\WINDOWS\V7.0A\INCLUDE\WINREG.H
C:\PROGRAM FILES (X86)\MICROSOFT SDKS\WINDOWS\V7.0A\INCLUDE\REASON.H
C:\PROGRAM FILES (X86)\MICROSOFT SDKS\WINDOWS\V7.0A\INCLUDE\WINNETWK.H
C:\PROGRAM FILES (X86)\MICROSOFT SDKS\WINDOWS\V7.0A\INCLUDE\WNNC.H
C:\PROGRAM FILES (X86)\MICROSOFT SDKS\WINDOWS\V7.0A\INCLUDE\CDERR.H
C:\PROGRAM FILES (X86)\MICROSOFT SDKS\WINDOWS\V7.0A\INCLUDE\DDE.H
C:\PROGRAM FILES (X86)\MICROSOFT SDKS\WINDOWS\V7.0A\INCLUDE\DDEML.H
C:\PROGRAM FILES (X86)\MICROSOFT SDKS\WINDOWS\V7.0A\INCLUDE\DLGS.H
C:\PROGRAM FILES (X86)\MICROSOFT SDKS\WINDOWS\V7.0A\INCLUDE\LZEXPAND.H
C:\PROGRAM FILES (X86)\MICROSOFT SDKS\WINDOWS\V7.0A\INCLUDE\MMSYSTEM.H
C:\PROGRAM FILES (X86)\MICROSOFT SDKS\WINDOWS\V7.0A\INCLUDE\NB30.H
C:\PROGRAM FILES (X86)\MICROSOFT SDKS\WINDOWS\V7.0A\INCLUDE\RPC.H
C:\PROGRAM FILES (X86)\MICROSOFT SDKS\WINDOWS\V7.0A\INCLUDE\RPCDCE.H
C:\PROGRAM FILES (X86)\MICROSOFT SDKS\WINDOWS\V7.0A\INCLUDE\RPCDCEP.H
C:\PROGRAM FILES (X86)\MICROSOFT SDKS\WINDOWS\V7.0A\INCLUDE\RPCNSI.H
C:\PROGRAM FILES (X86)\MICROSOFT SDKS\WINDOWS\V7.0A\INCLUDE\RPCNTERR.H
C:\PROGRAM FILES (X86)\MICROSOFT SDKS\WINDOWS\V7.0A\INCLUDE\RPCASYNC.H
C:\PROGRAM FILES (X86)\MICROSOFT SDKS\WINDOWS\V7.0A\INCLUDE\SHELLAPI.H
C:\PROGRAM FILES (X86)\MICROSOFT SDKS\WINDOWS\V7.0A\INCLUDE\WINPERF.H
C:\PROGRAM FILES (X86)\MICROSOFT SDKS\WINDOWS\V7.0A\INCLUDE\WINSOCK.H
C:\PROGRAM FILES (X86)\MICROSOFT SDKS\WINDOWS\V7.0A\INCLUDE\INADDR.H
C:\PROGRAM FILES (X86)\MICROSOFT SDKS\WINDOWS\V7.0A\INCLUDE\WINCRYPT.H
C:\PROGRAM FILES (X86)\MICROSOFT SDKS\WINDOWS\V7.0A\INCLUDE\BCRYPT.H
C:\PROGRAM FILES (X86)\MICROSOFT SDKS\WINDOWS\V7.0A\INCLUDE\NCRYPT.H
C:\PROGRAM FILES (X86)\MICROSOFT SDKS\WINDOWS\V7.0A\INCLUDE\WINEFS.H
C:\PROGRAM FILES (X86)\MICROSOFT SDKS\WINDOWS\V7.0A\INCLUDE\WINSCARD.H
C:\PROGRAM FILES (X86)\MICROSOFT SDKS\WINDOWS\V7.0A\INCLUDE\WTYPES.H
C:\PROGRAM FILES (X86)\MICROSOFT SDKS\WINDOWS\V7.0A\INCLUDE\RPCNDR.H
C:\PROGRAM FILES (X86)\MICROSOFT SDKS\WINDOWS\V7.0A\INCLUDE\RPCNSIP.H
C:\PROGRAM FILES (X86)\MICROSOFT SDKS\WINDOWS\V7.0A\INCLUDE\RPCSAL.H
C:\PROGRAM FILES (X86)\MICROSOFT SDKS\WINDOWS\V7.0A\INCLUDE\WINIOCTL.H
C:\PROGRAM FILES (X86)\MICROSOFT SDKS\WINDOWS\V7.0A\INCLUDE\WINSMCRD.H
C:\PROGRAM FILES (X86)\MICROSOFT SDKS\WINDOWS\V7.0A\INCLUDE\WINSPOOL.H
C:\PROGRAM FILES (X86)\MICROSOFT SDKS\WINDOWS\V7.0A\INCLUDE\PRSHT.H
C:\PROGRAM FILES (X86)\MICROSOFT SDKS\WINDOWS\V7.0A\INCLUDE\OLE2.H
C:\PROGRAM FILES (X86)\MICROSOFT SDKS\WINDOWS\V7.0A\INCLUDE\OBJBASE.H
F:\VISUAL STUDIO\VC\INCLUDE\STDLIB.H
F:\VISUAL STUDIO\VC\INCLUDE\LIMITS.H
C:\PROGRAM FILES (X86)\MICROSOFT SDKS\WINDOWS\V7.0A\INCLUDE\UNKNWN.H
C:\PROGRAM FILES (X86)\MICROSOFT SDKS\WINDOWS\V7.0A\INCLUDE\OBJIDL.H
C:\PROGRAM FILES (X86)\MICROSOFT SDKS\WINDOWS\V7.0A\INCLUDE\CGUID.H
C:\PROGRAM FILES (X86)\MICROSOFT SDKS\WINDOWS\V7.0A\INCLUDE\URLMON.H
C:\PROGRAM FILES (X86)\MICROSOFT SDKS\WINDOWS\V7.0A\INCLUDE\OLEIDL.H
C:\PROGRAM FILES (X86)\MICROSOFT SDKS\WINDOWS\V7.0A\INCLUDE\SERVPROV.H
C:\PROGRAM FILES (X86)\MICROSOFT SDKS\WINDOWS\V7.0A\INCLUDE\MSXML.H
C:\PROGRAM FILES (X86)\MICROSOFT SDKS\WINDOWS\V7.0A\INCLUDE\OAIDL.H
C:\PROGRAM FILES (X86)\MICROSOFT SDKS\WINDOWS\V7.0A\INCLUDE\PROPIDL.H
C:\PROGRAM FILES (X86)\MICROSOFT SDKS\WINDOWS\V7.0A\INCLUDE\OLEAUTO.H
C:\PROGRAM FILES (X86)\MICROSOFT SDKS\WINDOWS\V7.0A\INCLUDE\COMMDLG.H
C:\PROGRAM FILES (X86)\MICROSOFT SDKS\WINDOWS\V7.0A\INCLUDE\STRALIGN.H
C:\PROGRAM FILES (X86)\MICROSOFT SDKS\WINDOWS\V7.0A\INCLUDE\WINSVC.H
C:\PROGRAM FILES (X86)\MICROSOFT SDKS\WINDOWS\V7.0A\INCLUDE\MCX.H
C:\PROGRAM FILES (X86)\MICROSOFT SDKS\WINDOWS\V7.0A\INCLUDE\IMM.H
C:\PROGRAM FILES (X86)\MICROSOFT SDKS\WINDOWS\V7.0A\INCLUDE\IME_CMODES.H
C:\USERS\JULIAN\REPOS\CORE\DEP\LUALIB\LUA.H
F:\VISUAL STUDIO\VC\INCLUDE\STDDEF.H
C:\USERS\JULIAN\REPOS\CORE\DEP\LUALIB\LUACONF.H
F:\VISUAL STUDIO\VC\INCLUDE\STDIO.H
F:\VISUAL STUDIO\VC\INCLUDE\SWPRINTF.INL
C:\USERS\JULIAN\REPOS\CORE\DEP\LUALIB\LAUXLIB.H
C:\USERS\JULIAN\REPOS\CORE\DEP\LUALIB\LUALIB.H
^C:\USERS\JULIAN\REPOS\CORE\DEP\LUALIB\LMEM.C
F:\VISUAL STUDIO\VC\INCLUDE\STDDEF.H
F:\VISUAL STUDIO\VC\INCLUDE\CRTDEFS.H
F:\VISUAL STUDIO\VC\INCLUDE\SAL.H
F:\VISUAL STUDIO\VC\INCLUDE\CODEANALYSIS\SOURCEANNOTATIONS.H
F:\VISUAL STUDIO\VC\INCLUDE\VADEFS.H
C:\USERS\JULIAN\REPOS\CORE\DEP\LUALIB\LUA.H
F:\VISUAL STUDIO\VC\INCLUDE\STDARG.H
C:\USERS\JULIAN\REPOS\CORE\DEP\LUALIB\LUACONF.H
F:\VISUAL STUDIO\VC\INCLUDE\LIMITS.H
C:\USERS\JULIAN\REPOS\CORE\DEP\LUALIB\LDEBUG.H
C:\USERS\JULIAN\REPOS\CORE\DEP\LUALIB\LSTATE.H
C:\USERS\JULIAN\REPOS\CORE\DEP\LUALIB\LOBJECT.H
C:\USERS\JULIAN\REPOS\CORE\DEP\LUALIB\LLIMITS.H
C:\USERS\JULIAN\REPOS\CORE\DEP\LUALIB\LTM.H
C:\USERS\JULIAN\REPOS\CORE\DEP\LUALIB\LZIO.H
C:\USERS\JULIAN\REPOS\CORE\DEP\LUALIB\LMEM.H
C:\USERS\JULIAN\REPOS\CORE\DEP\LUALIB\LDO.H
C:\USERS\JULIAN\REPOS\CORE\DEP\LUALIB\LGC.H
^C:\USERS\JULIAN\REPOS\CORE\DEP\LUALIB\LMATHLIB.C
F:\VISUAL STUDIO\VC\INCLUDE\STDLIB.H
F:\VISUAL STUDIO\VC\INCLUDE\CRTDEFS.H
F:\VISUAL STUDIO\VC\INCLUDE\SAL.H
F:\VISUAL STUDIO\VC\INCLUDE\CODEANALYSIS\SOURCEANNOTATIONS.H
F:\VISUAL STUDIO\VC\INCLUDE\VADEFS.H
F:\VISUAL STUDIO\VC\INCLUDE\LIMITS.H
F:\VISUAL STUDIO\VC\INCLUDE\MATH.H
C:\USERS\JULIAN\REPOS\CORE\DEP\LUALIB\LUA.H
F:\VISUAL STUDIO\VC\INCLUDE\STDARG.H
F:\VISUAL STUDIO\VC\INCLUDE\STDDEF.H
C:\USERS\JULIAN\REPOS\CORE\DEP\LUALIB\LUACONF.H
F:\VISUAL STUDIO\VC\INCLUDE\STDIO.H
F:\VISUAL STUDIO\VC\INCLUDE\SWPRINTF.INL
C:\USERS\JULIAN\REPOS\CORE\DEP\LUALIB\LAUXLIB.H
C:\USERS\JULIAN\REPOS\CORE\DEP\LUALIB\LUALIB.H
^C:\USERS\JULIAN\REPOS\CORE\DEP\LUALIB\LLEX.C
F:\VISUAL STUDIO\VC\INCLUDE\LOCALE.H
F:\VISUAL STUDIO\VC\INCLUDE\CRTDEFS.H
F:\VISUAL STUDIO\VC\INCLUDE\SAL.H
F:\VISUAL STUDIO\VC\INCLUDE\CODEANALYSIS\SOURCEANNOTATIONS.H
F:\VISUAL STUDIO\VC\INCLUDE\VADEFS.H
F:\VISUAL STUDIO\VC\INCLUDE\STRING.H
C:\USERS\JULIAN\REPOS\CORE\DEP\LUALIB\LUA.H
F:\VISUAL STUDIO\VC\INCLUDE\STDARG.H
F:\VISUAL STUDIO\VC\INCLUDE\STDDEF.H
C:\USERS\JULIAN\REPOS\CORE\DEP\LUALIB\LUACONF.H
F:\VISUAL STUDIO\VC\INCLUDE\LIMITS.H
C:\USERS\JULIAN\REPOS\CORE\DEP\LUALIB\LCTYPE.H
C:\USERS\JULIAN\REPOS\CORE\DEP\LUALIB\LLIMITS.H
C:\USERS\JULIAN\REPOS\CORE\DEP\LUALIB\LDO.H
C:\USERS\JULIAN\REPOS\CORE\DEP\LUALIB\LOBJECT.H
C:\USERS\JULIAN\REPOS\CORE\DEP\LUALIB\LSTATE.H
C:\USERS\JULIAN\REPOS\CORE\DEP\LUALIB\LTM.H
C:\USERS\JULIAN\REPOS\CORE\DEP\LUALIB\LZIO.H
C:\USERS\JULIAN\REPOS\CORE\DEP\LUALIB\LMEM.H
C:\USERS\JULIAN\REPOS\CORE\DEP\LUALIB\LLEX.H
C:\USERS\JULIAN\REPOS\CORE\DEP\LUALIB\LPARSER.H
C:\USERS\JULIAN\REPOS\CORE\DEP\LUALIB\LSTRING.H
C:\USERS\JULIAN\REPOS\CORE\DEP\LUALIB\LGC.H
C:\USERS\JULIAN\REPOS\CORE\DEP\LUALIB\LTABLE.H
^C:\USERS\JULIAN\REPOS\CORE\DEP\LUALIB\LIOLIB.C
F:\VISUAL STUDIO\VC\INCLUDE\ERRNO.H
F:\VISUAL STUDIO\VC\INCLUDE\CRTDEFS.H
F:\VISUAL STUDIO\VC\INCLUDE\SAL.H
F:\VISUAL STUDIO\VC\INCLUDE\CODEANALYSIS\SOURCEANNOTATIONS.H
F:\VISUAL STUDIO\VC\INCLUDE\VADEFS.H
F:\VISUAL STUDIO\VC\INCLUDE\STDIO.H
F:\VISUAL STUDIO\VC\INCLUDE\SWPRINTF.INL
F:\VISUAL STUDIO\VC\INCLUDE\STDLIB.H
F:\VISUAL STUDIO\VC\INCLUDE\LIMITS.H
F:\VISUAL STUDIO\VC\INCLUDE\STRING.H
C:\USERS\JULIAN\REPOS\CORE\DEP\LUALIB\LUA.H
F:\VISUAL STUDIO\VC\INCLUDE\STDARG.H
F:\VISUAL STUDIO\VC\INCLUDE\STDDEF.H
C:\USERS\JULIAN\REPOS\CORE\DEP\LUALIB\LUACONF.H
C:\USERS\JULIAN\REPOS\CORE\DEP\LUALIB\LAUXLIB.H
C:\USERS\JULIAN\REPOS\CORE\DEP\LUALIB\LUALIB.H
^C:\USERS\JULIAN\REPOS\CORE\DEP\LUALIB\LINIT.C
C:\USERS\JULIAN\REPOS\CORE\DEP\LUALIB\LUA.H
F:\VISUAL STUDIO\VC\INCLUDE\STDARG.H
F:\VISUAL STUDIO\VC\INCLUDE\VADEFS.H
F:\VISUAL STUDIO\VC\INCLUDE\STDDEF.H
F:\VISUAL STUDIO\VC\INCLUDE\CRTDEFS.H
F:\VISUAL STUDIO\VC\INCLUDE\SAL.H
F:\VISUAL STUDIO\VC\INCLUDE\CODEANALYSIS\SOURCEANNOTATIONS.H
C:\USERS\JULIAN\REPOS\CORE\DEP\LUALIB\LUACONF.H
F:\VISUAL STUDIO\VC\INCLUDE\LIMITS.H
F:\VISUAL STUDIO\VC\INCLUDE\STDIO.H
F:\VISUAL STUDIO\VC\INCLUDE\SWPRINTF.INL
C:\USERS\JULIAN\REPOS\CORE\DEP\LUALIB\LUALIB.H
C:\USERS\JULIAN\REPOS\CORE\DEP\LUALIB\LAUXLIB.H
^C:\USERS\JULIAN\REPOS\CORE\DEP\LUALIB\LGC.C
F:\VISUAL STUDIO\VC\INCLUDE\STRING.H
F:\VISUAL STUDIO\VC\INCLUDE\CRTDEFS.H
F:\VISUAL STUDIO\VC\INCLUDE\SAL.H
F:\VISUAL STUDIO\VC\INCLUDE\CODEANALYSIS\SOURCEANNOTATIONS.H
F:\VISUAL STUDIO\VC\INCLUDE\VADEFS.H
C:\USERS\JULIAN\REPOS\CORE\DEP\LUALIB\LUA.H
F:\VISUAL STUDIO\VC\INCLUDE\STDARG.H
F:\VISUAL STUDIO\VC\INCLUDE\STDDEF.H
C:\USERS\JULIAN\REPOS\CORE\DEP\LUALIB\LUACONF.H
F:\VISUAL STUDIO\VC\INCLUDE\LIMITS.H
C:\USERS\JULIAN\REPOS\CORE\DEP\LUALIB\LDEBUG.H
C:\USERS\JULIAN\REPOS\CORE\DEP\LUALIB\LSTATE.H
C:\USERS\JULIAN\REPOS\CORE\DEP\LUALIB\LOBJECT.H
C:\USERS\JULIAN\REPOS\CORE\DEP\LUALIB\LLIMITS.H
C:\USERS\JULIAN\REPOS\CORE\DEP\LUALIB\LTM.H
C:\USERS\JULIAN\REPOS\CORE\DEP\LUALIB\LZIO.H
C:\USERS\JULIAN\REPOS\CORE\DEP\LUALIB\LMEM.H
C:\USERS\JULIAN\REPOS\CORE\DEP\LUALIB\LDO.H
C:\USERS\JULIAN\REPOS\CORE\DEP\LUALIB\LFUNC.H
C:\USERS\JULIAN\REPOS\CORE\DEP\LUALIB\LGC.H
C:\USERS\JULIAN\REPOS\CORE\DEP\LUALIB\LSTRING.H
C:\USERS\JULIAN\REPOS\CORE\DEP\LUALIB\LTABLE.H
^C:\USERS\JULIAN\REPOS\CORE\DEP\LUALIB\LFUNC.C
F:\VISUAL STUDIO\VC\INCLUDE\STDDEF.H
F:\VISUAL STUDIO\VC\INCLUDE\CRTDEFS.H
F:\VISUAL STUDIO\VC\INCLUDE\SAL.H
F:\VISUAL STUDIO\VC\INCLUDE\CODEANALYSIS\SOURCEANNOTATIONS.H
F:\VISUAL STUDIO\VC\INCLUDE\VADEFS.H
C:\USERS\JULIAN\REPOS\CORE\DEP\LUALIB\LUA.H
F:\VISUAL STUDIO\VC\INCLUDE\STDARG.H
C:\USERS\JULIAN\REPOS\CORE\DEP\LUALIB\LUACONF.H
F:\VISUAL STUDIO\VC\INCLUDE\LIMITS.H
C:\USERS\JULIAN\REPOS\CORE\DEP\LUALIB\LFUNC.H
C:\USERS\JULIAN\REPOS\CORE\DEP\LUALIB\LOBJECT.H
C:\USERS\JULIAN\REPOS\CORE\DEP\LUALIB\LLIMITS.H
C:\USERS\JULIAN\REPOS\CORE\DEP\LUALIB\LGC.H
C:\USERS\JULIAN\REPOS\CORE\DEP\LUALIB\LSTATE.H
C:\USERS\JULIAN\REPOS\CORE\DEP\LUALIB\LTM.H
C:\USERS\JULIAN\REPOS\CORE\DEP\LUALIB\LZIO.H
C:\USERS\JULIAN\REPOS\CORE\DEP\LUALIB\LMEM.H
^C:\USERS\JULIAN\REPOS\CORE\DEP\LUALIB\LDUMP.C
F:\VISUAL STUDIO\VC\INCLUDE\STDDEF.H
F:\VISUAL STUDIO\VC\INCLUDE\CRTDEFS.H
F:\VISUAL STUDIO\VC\INCLUDE\SAL.H
F:\VISUAL STUDIO\VC\INCLUDE\CODEANALYSIS\SOURCEANNOTATIONS.H
F:\VISUAL STUDIO\VC\INCLUDE\VADEFS.H
C:\USERS\JULIAN\REPOS\CORE\DEP\LUALIB\LUA.H
F:\VISUAL STUDIO\VC\INCLUDE\STDARG.H
C:\USERS\JULIAN\REPOS\CORE\DEP\LUALIB\LUACONF.H
F:\VISUAL STUDIO\VC\INCLUDE\LIMITS.H
C:\USERS\JULIAN\REPOS\CORE\DEP\LUALIB\LOBJECT.H
C:\USERS\JULIAN\REPOS\CORE\DEP\LUALIB\LLIMITS.H
C:\USERS\JULIAN\REPOS\CORE\DEP\LUALIB\LSTATE.H
C:\USERS\JULIAN\REPOS\CORE\DEP\LUALIB\LTM.H
C:\USERS\JULIAN\REPOS\CORE\DEP\LUALIB\LZIO.H
C:\USERS\JULIAN\REPOS\CORE\DEP\LUALIB\LMEM.H
C:\USERS\JULIAN\REPOS\CORE\DEP\LUALIB\LUNDUMP.H
^C:\USERS\JULIAN\REPOS\CORE\DEP\LUALIB\LDO.C
F:\VISUAL STUDIO\VC\INCLUDE\SETJMP.H
F:\VISUAL STUDIO\VC\INCLUDE\CRTDEFS.H
F:\VISUAL STUDIO\VC\INCLUDE\SAL.H
F:\VISUAL STUDIO\VC\INCLUDE\CODEANALYSIS\SOURCEANNOTATIONS.H
F:\VISUAL STUDIO\VC\INCLUDE\VADEFS.H
F:\VISUAL STUDIO\VC\INCLUDE\STDLIB.H
F:\VISUAL STUDIO\VC\INCLUDE\LIMITS.H
F:\VISUAL STUDIO\VC\INCLUDE\STRING.H
C:\USERS\JULIAN\REPOS\CORE\DEP\LUALIB\LUA.H
F:\VISUAL STUDIO\VC\INCLUDE\STDARG.H
F:\VISUAL STUDIO\VC\INCLUDE\STDDEF.H
C:\USERS\JULIAN\REPOS\CORE\DEP\LUALIB\LUACONF.H
C:\USERS\JULIAN\REPOS\CORE\DEP\LUALIB\LAPI.H
C:\USERS\JULIAN\REPOS\CORE\DEP\LUALIB\LLIMITS.H
C:\USERS\JULIAN\REPOS\CORE\DEP\LUALIB\LSTATE.H
C:\USERS\JULIAN\REPOS\CORE\DEP\LUALIB\LOBJECT.H
C:\USERS\JULIAN\REPOS\CORE\DEP\LUALIB\LTM.H
C:\USERS\JULIAN\REPOS\CORE\DEP\LUALIB\LZIO.H
C:\USERS\JULIAN\REPOS\CORE\DEP\LUALIB\LMEM.H
C:\USERS\JULIAN\REPOS\CORE\DEP\LUALIB\LDEBUG.H
C:\USERS\JULIAN\REPOS\CORE\DEP\LUALIB\LDO.H
C:\USERS\JULIAN\REPOS\CORE\DEP\LUALIB\LFUNC.H
C:\USERS\JULIAN\REPOS\CORE\DEP\LUALIB\LGC.H
C:\USERS\JULIAN\REPOS\CORE\DEP\LUALIB\LOPCODES.H
C:\USERS\JULIAN\REPOS\CORE\DEP\LUALIB\LPARSER.H
C:\USERS\JULIAN\REPOS\CORE\DEP\LUALIB\LSTRING.H
C:\USERS\JULIAN\REPOS\CORE\DEP\LUALIB\LTABLE.H
C:\USERS\JULIAN\REPOS\CORE\DEP\LUALIB\LUNDUMP.H
C:\USERS\JULIAN\REPOS\CORE\DEP\LUALIB\LVM.H
^C:\USERS\JULIAN\REPOS\CORE\DEP\LUALIB\LDEBUG.C
F:\VISUAL STUDIO\VC\INCLUDE\STDARG.H
F:\VISUAL STUDIO\VC\INCLUDE\VADEFS.H
F:\VISUAL STUDIO\VC\INCLUDE\STDDEF.H
F:\VISUAL STUDIO\VC\INCLUDE\CRTDEFS.H
F:\VISUAL STUDIO\VC\INCLUDE\SAL.H
F:\VISUAL STUDIO\VC\INCLUDE\CODEANALYSIS\SOURCEANNOTATIONS.H
F:\VISUAL STUDIO\VC\INCLUDE\STRING.H
C:\USERS\JULIAN\REPOS\CORE\DEP\LUALIB\LUA.H
C:\USERS\JULIAN\REPOS\CORE\DEP\LUALIB\LUACONF.H
F:\VISUAL STUDIO\VC\INCLUDE\LIMITS.H
C:\USERS\JULIAN\REPOS\CORE\DEP\LUALIB\LAPI.H
C:\USERS\JULIAN\REPOS\CORE\DEP\LUALIB\LLIMITS.H
C:\USERS\JULIAN\REPOS\CORE\DEP\LUALIB\LSTATE.H
C:\USERS\JULIAN\REPOS\CORE\DEP\LUALIB\LOBJECT.H
C:\USERS\JULIAN\REPOS\CORE\DEP\LUALIB\LTM.H
C:\USERS\JULIAN\REPOS\CORE\DEP\LUALIB\LZIO.H
C:\USERS\JULIAN\REPOS\CORE\DEP\LUALIB\LMEM.H
C:\USERS\JULIAN\REPOS\CORE\DEP\LUALIB\LCODE.H
C:\USERS\JULIAN\REPOS\CORE\DEP\LUALIB\LLEX.H
C:\USERS\JULIAN\REPOS\CORE\DEP\LUALIB\LOPCODES.H
C:\USERS\JULIAN\REPOS\CORE\DEP\LUALIB\LPARSER.H
C:\USERS\JULIAN\REPOS\CORE\DEP\LUALIB\LDEBUG.H
C:\USERS\JULIAN\REPOS\CORE\DEP\LUALIB\LDO.H
C:\USERS\JULIAN\REPOS\CORE\DEP\LUALIB\LFUNC.H
C:\USERS\JULIAN\REPOS\CORE\DEP\LUALIB\LSTRING.H
C:\USERS\JULIAN\REPOS\CORE\DEP\LUALIB\LGC.H
C:\USERS\JULIAN\REPOS\CORE\DEP\LUALIB\LTABLE.H
C:\USERS\JULIAN\REPOS\CORE\DEP\LUALIB\LVM.H
^C:\USERS\JULIAN\REPOS\CORE\DEP\LUALIB\LDBLIB.C
F:\VISUAL STUDIO\VC\INCLUDE\STDIO.H
F:\VISUAL STUDIO\VC\INCLUDE\CRTDEFS.H
F:\VISUAL STUDIO\VC\INCLUDE\SAL.H
F:\VISUAL STUDIO\VC\INCLUDE\CODEANALYSIS\SOURCEANNOTATIONS.H
F:\VISUAL STUDIO\VC\INCLUDE\VADEFS.H
F:\VISUAL STUDIO\VC\INCLUDE\SWPRINTF.INL
F:\VISUAL STUDIO\VC\INCLUDE\STDLIB.H
F:\VISUAL STUDIO\VC\INCLUDE\LIMITS.H
F:\VISUAL STUDIO\VC\INCLUDE\STRING.H
C:\USERS\JULIAN\REPOS\CORE\DEP\LUALIB\LUA.H
F:\VISUAL STUDIO\VC\INCLUDE\STDARG.H
F:\VISUAL STUDIO\VC\INCLUDE\STDDEF.H
C:\USERS\JULIAN\REPOS\CORE\DEP\LUALIB\LUACONF.H
C:\USERS\JULIAN\REPOS\CORE\DEP\LUALIB\LAUXLIB.H
C:\USERS\JULIAN\REPOS\CORE\DEP\LUALIB\LUALIB.H
^C:\USERS\JULIAN\REPOS\CORE\DEP\LUALIB\LCTYPE.C
C:\USERS\JULIAN\REPOS\CORE\DEP\LUALIB\LCTYPE.H
C:\USERS\JULIAN\REPOS\CORE\DEP\LUALIB\LUA.H
F:\VISUAL STUDIO\VC\INCLUDE\STDARG.H
F:\VISUAL STUDIO\VC\INCLUDE\VADEFS.H
F:\VISUAL STUDIO\VC\INCLUDE\STDDEF.H
F:\VISUAL STUDIO\VC\INCLUDE\CRTDEFS.H
F:\VISUAL STUDIO\VC\INCLUDE\SAL.H
F:\VISUAL STUDIO\VC\INCLUDE\CODEANALYSIS\SOURCEANNOTATIONS.H
C:\USERS\JULIAN\REPOS\CORE\DEP\LUALIB\LUACONF.H
F:\VISUAL STUDIO\VC\INCLUDE\LIMITS.H
C:\USERS\JULIAN\REPOS\CORE\DEP\LUALIB\LLIMITS.H
^C:\USERS\JULIAN\REPOS\CORE\DEP\LUALIB\LCOROLIB.C
F:\VISUAL STUDIO\VC\INCLUDE\STDLIB.H
F:\VISUAL STUDIO\VC\INCLUDE\CRTDEFS.H
F:\VISUAL STUDIO\VC\INCLUDE\SAL.H
F:\VISUAL STUDIO\VC\INCLUDE\CODEANALYSIS\SOURCEANNOTATIONS.H
F:\VISUAL STUDIO\VC\INCLUDE\VADEFS.H
F:\VISUAL STUDIO\VC\INCLUDE\LIMITS.H
C:\USERS\JULIAN\REPOS\CORE\DEP\LUALIB\LUA.H
F:\VISUAL STUDIO\VC\INCLUDE\STDARG.H
F:\VISUAL STUDIO\VC\INCLUDE\STDDEF.H
C:\USERS\JULIAN\REPOS\CORE\DEP\LUALIB\LUACONF.H
F:\VISUAL STUDIO\VC\INCLUDE\STDIO.H
F:\VISUAL STUDIO\VC\INCLUDE\SWPRINTF.INL
C:\USERS\JULIAN\REPOS\CORE\DEP\LUALIB\LAUXLIB.H
C:\USERS\JULIAN\REPOS\CORE\DEP\LUALIB\LUALIB.H
^C:\USERS\JULIAN\REPOS\CORE\DEP\LUALIB\LCODE.C
F:\VISUAL STUDIO\VC\INCLUDE\STDLIB.H
F:\VISUAL STUDIO\VC\INCLUDE\CRTDEFS.H
F:\VISUAL STUDIO\VC\INCLUDE\SAL.H
F:\VISUAL STUDIO\VC\INCLUDE\CODEANALYSIS\SOURCEANNOTATIONS.H
F:\VISUAL STUDIO\VC\INCLUDE\VADEFS.H
F:\VISUAL STUDIO\VC\INCLUDE\LIMITS.H
C:\USERS\JULIAN\REPOS\CORE\DEP\LUALIB\LUA.H
F:\VISUAL STUDIO\VC\INCLUDE\STDARG.H
F:\VISUAL STUDIO\VC\INCLUDE\STDDEF.H
C:\USERS\JULIAN\REPOS\CORE\DEP\LUALIB\LUACONF.H
C:\USERS\JULIAN\REPOS\CORE\DEP\LUALIB\LCODE.H
C:\USERS\JULIAN\REPOS\CORE\DEP\LUALIB\LLEX.H
C:\USERS\JULIAN\REPOS\CORE\DEP\LUALIB\LOBJECT.H
C:\USERS\JULIAN\REPOS\CORE\DEP\LUALIB\LLIMITS.H
C:\USERS\JULIAN\REPOS\CORE\DEP\LUALIB\LZIO.H
C:\USERS\JULIAN\REPOS\CORE\DEP\LUALIB\LMEM.H
C:\USERS\JULIAN\REPOS\CORE\DEP\LUALIB\LOPCODES.H
C:\USERS\JULIAN\REPOS\CORE\DEP\LUALIB\LPARSER.H
C:\USERS\JULIAN\REPOS\CORE\DEP\LUALIB\LDEBUG.H
C:\USERS\JULIAN\REPOS\CORE\DEP\LUALIB\LSTATE.H
C:\USERS\JULIAN\REPOS\CORE\DEP\LUALIB\LTM.H
C:\USERS\JULIAN\REPOS\CORE\DEP\LUALIB\LDO.H
C:\USERS\JULIAN\REPOS\CORE\DEP\LUALIB\LGC.H
C:\USERS\JULIAN\REPOS\CORE\DEP\LUALIB\LSTRING.H
C:\USERS\JULIAN\REPOS\CORE\DEP\LUALIB\LTABLE.H
C:\USERS\JULIAN\REPOS\CORE\DEP\LUALIB\LVM.H
^C:\USERS\JULIAN\REPOS\CORE\DEP\LUALIB\LBITLIB.C
C:\USERS\JULIAN\REPOS\CORE\DEP\LUALIB\LUA.H
F:\VISUAL STUDIO\VC\INCLUDE\STDARG.H
F:\VISUAL STUDIO\VC\INCLUDE\VADEFS.H
F:\VISUAL STUDIO\VC\INCLUDE\STDDEF.H
F:\VISUAL STUDIO\VC\INCLUDE\CRTDEFS.H
F:\VISUAL STUDIO\VC\INCLUDE\SAL.H
F:\VISUAL STUDIO\VC\INCLUDE\CODEANALYSIS\SOURCEANNOTATIONS.H
C:\USERS\JULIAN\REPOS\CORE\DEP\LUALIB\LUACONF.H
F:\VISUAL STUDIO\VC\INCLUDE\LIMITS.H
F:\VISUAL STUDIO\VC\INCLUDE\STDIO.H
F:\VISUAL STUDIO\VC\INCLUDE\SWPRINTF.INL
C:\USERS\JULIAN\REPOS\CORE\DEP\LUALIB\LAUXLIB.H
C:\USERS\JULIAN\REPOS\CORE\DEP\LUALIB\LUALIB.H
^C:\USERS\JULIAN\REPOS\CORE\DEP\LUALIB\LBASELIB.C
F:\VISUAL STUDIO\VC\INCLUDE\CTYPE.H
F:\VISUAL STUDIO\VC\INCLUDE\CRTDEFS.H
F:\VISUAL STUDIO\VC\INCLUDE\SAL.H
F:\VISUAL STUDIO\VC\INCLUDE\CODEANALYSIS\SOURCEANNOTATIONS.H
F:\VISUAL STUDIO\VC\INCLUDE\VADEFS.H
F:\VISUAL STUDIO\VC\INCLUDE\STDIO.H
F:\VISUAL STUDIO\VC\INCLUDE\SWPRINTF.INL
F:\VISUAL STUDIO\VC\INCLUDE\STDLIB.H
F:\VISUAL STUDIO\VC\INCLUDE\LIMITS.H
F:\VISUAL STUDIO\VC\INCLUDE\STRING.H
C:\USERS\JULIAN\REPOS\CORE\DEP\LUALIB\LUA.H
F:\VISUAL STUDIO\VC\INCLUDE\STDARG.H
F:\VISUAL STUDIO\VC\INCLUDE\STDDEF.H
C:\USERS\JULIAN\REPOS\CORE\DEP\LUALIB\LUACONF.H
C:\USERS\JULIAN\REPOS\CORE\DEP\LUALIB\LAUXLIB.H
C:\USERS\JULIAN\REPOS\CORE\DEP\LUALIB\LUALIB.H
^C:\USERS\JULIAN\REPOS\CORE\DEP\LUALIB\LAUXLIB.C
F:\VISUAL STUDIO\VC\INCLUDE\ERRNO.H
F:\VISUAL STUDIO\VC\INCLUDE\CRTDEFS.H
F:\VISUAL STUDIO\VC\INCLUDE\SAL.H
F:\VISUAL STUDIO\VC\INCLUDE\CODEANALYSIS\SOURCEANNOTATIONS.H
F:\VISUAL STUDIO\VC\INCLUDE\VADEFS.H
F:\VISUAL STUDIO\VC\INCLUDE\STDARG.H
F:\VISUAL STUDIO\VC\INCLUDE\STDIO.H
F:\VISUAL STUDIO\VC\INCLUDE\SWPRINTF.INL
F:\VISUAL STUDIO\VC\INCLUDE\STDLIB.H
F:\VISUAL STUDIO\VC\INCLUDE\LIMITS.H
F:\VISUAL STUDIO\VC\INCLUDE\STRING.H
C:\USERS\JULIAN\REPOS\CORE\DEP\LUALIB\LUA.H
F:\VISUAL STUDIO\VC\INCLUDE\STDDEF.H
C:\USERS\JULIAN\REPOS\CORE\DEP\LUALIB\LUACONF.H
C:\USERS\JULIAN\REPOS\CORE\DEP\LUALIB\LAUXLIB.H
^C:\USERS\JULIAN\REPOS\CORE\DEP\LUALIB\LAPI.C
F:\VISUAL STUDIO\VC\INCLUDE\STDARG.H
F:\VISUAL STUDIO\VC\INCLUDE\VADEFS.H
F:\VISUAL STUDIO\VC\INCLUDE\STRING.H
F:\VISUAL STUDIO\VC\INCLUDE\CRTDEFS.H
F:\VISUAL STUDIO\VC\INCLUDE\SAL.H
F:\VISUAL STUDIO\VC\INCLUDE\CODEANALYSIS\SOURCEANNOTATIONS.H
C:\USERS\JULIAN\REPOS\CORE\DEP\LUALIB\LUA.H
F:\VISUAL STUDIO\VC\INCLUDE\STDDEF.H
C:\USERS\JULIAN\REPOS\CORE\DEP\LUALIB\LUACONF.H
F:\VISUAL STUDIO\VC\INCLUDE\LIMITS.H
C:\USERS\JULIAN\REPOS\CORE\DEP\LUALIB\LAPI.H
C:\USERS\JULIAN\REPOS\CORE\DEP\LUALIB\LLIMITS.H
C:\USERS\JULIAN\REPOS\CORE\DEP\LUALIB\LSTATE.H
C:\USERS\JULIAN\REPOS\CORE\DEP\LUALIB\LOBJECT.H
C:\USERS\JULIAN\REPOS\CORE\DEP\LUALIB\LTM.H
C:\USERS\JULIAN\REPOS\CORE\DEP\LUALIB\LZIO.H
C:\USERS\JULIAN\REPOS\CORE\DEP\LUALIB\LMEM.H
C:\USERS\JULIAN\REPOS\CORE\DEP\LUALIB\LDEBUG.H
C:\USERS\JULIAN\REPOS\CORE\DEP\LUALIB\LDO.H
C:\USERS\JULIAN\REPOS\CORE\DEP\LUALIB\LFUNC.H
C:\USERS\JULIAN\REPOS\CORE\DEP\LUALIB\LGC.H
C:\USERS\JULIAN\REPOS\CORE\DEP\LUALIB\LSTRING.H
C:\USERS\JULIAN\REPOS\CORE\DEP\LUALIB\LTABLE.H
C:\USERS\JULIAN\REPOS\CORE\DEP\LUALIB\LUNDUMP.H
C:\USERS\JULIAN\REPOS\CORE\DEP\LUALIB\LVM.H
