^C:\USERS\JULIAN\REPOS\CORE\WIN\VC100\LUALIB__WIN32_DEBUG\LAPI.OBJ|C:\USERS\JULIAN\REPOS\CORE\WIN\VC100\LUALIB__WIN32_DEBUG\LAUXLIB.OBJ|C:\USERS\JULIAN\REPOS\CORE\WIN\VC100\LUALIB__WIN32_DEBUG\LBASELIB.OBJ|C:\USERS\JULIAN\REPOS\CORE\WIN\VC100\LUALIB__WIN32_DEBUG\LBITLIB.OBJ|C:\USERS\JULIAN\REPOS\CORE\WIN\VC100\LUALIB__WIN32_DEBUG\LCODE.OBJ|C:\USERS\JULIAN\REPOS\CORE\WIN\VC100\LUALIB__WIN32_DEBUG\LCOROLIB.OBJ|C:\USERS\JULIAN\REPOS\CORE\WIN\VC100\LUALIB__WIN32_DEBUG\LCTYPE.OBJ|C:\USERS\JULIAN\REPOS\CORE\WIN\VC100\LUALIB__WIN32_DEBUG\LDBLIB.OBJ|C:\USERS\JULIAN\REPOS\CORE\WIN\VC100\LUALIB__WIN32_DEBUG\LDEBUG.OBJ|C:\USERS\JULIAN\REPOS\CORE\WIN\VC100\LUALIB__WIN32_DEBUG\LDO.OBJ|C:\USERS\JULIAN\REPOS\CORE\WIN\VC100\LUALIB__WIN32_DEBUG\LDUMP.OBJ|C:\USERS\JULIAN\REPOS\CORE\WIN\VC100\LUALIB__WIN32_DEBUG\LFUNC.OBJ|C:\USERS\JULIAN\REPOS\CORE\WIN\VC100\LUALIB__WIN32_DEBUG\LGC.OBJ|C:\USERS\JULIAN\REPOS\CORE\WIN\VC100\LUALIB__WIN32_DEBUG\LINIT.OBJ|C:\USERS\JULIAN\REPOS\CORE\WIN\VC100\LUALIB__WIN32_DEBUG\LIOLIB.OBJ|C:\USERS\JULIAN\REPOS\CORE\WIN\VC100\LUALIB__WIN32_DEBUG\LLEX.OBJ|C:\USERS\JULIAN\REPOS\CORE\WIN\VC100\LUALIB__WIN32_DEBUG\LMATHLIB.OBJ|C:\USERS\JULIAN\REPOS\CORE\WIN\VC100\LUALIB__WIN32_DEBUG\LMEM.OBJ|C:\USERS\JULIAN\REPOS\CORE\WIN\VC100\LUALIB__WIN32_DEBUG\LOADLIB.OBJ|C:\USERS\JULIAN\REPOS\CORE\WIN\VC100\LUALIB__WIN32_DEBUG\LOBJECT.OBJ|C:\USERS\JULIAN\REPOS\CORE\WIN\VC100\LUALIB__WIN32_DEBUG\LOPCODES.OBJ|C:\USERS\JULIAN\REPOS\CORE\WIN\VC100\LUALIB__WIN32_DEBUG\LOSLIB.OBJ|C:\USERS\JULIAN\REPOS\CORE\WIN\VC100\LUALIB__WIN32_DEBUG\LPARSER.OBJ|C:\USERS\JULIAN\REPOS\CORE\WIN\VC100\LUALIB__WIN32_DEBUG\LSTATE.OBJ|C:\USERS\JULIAN\REPOS\CORE\WIN\VC100\LUALIB__WIN32_DEBUG\LSTRING.OBJ|C:\USERS\JULIAN\REPOS\CORE\WIN\VC100\LUALIB__WIN32_DEBUG\LSTRLIB.OBJ|C:\USERS\JULIAN\REPOS\CORE\WIN\VC100\LUALIB__WIN32_DEBUG\LTABLE.OBJ|C:\USERS\JULIAN\REPOS\CORE\WIN\VC100\LUALIB__WIN32_DEBUG\LTABLIB.OBJ|C:\USERS\JULIAN\REPOS\CORE\WIN\VC100\LUALIB__WIN32_DEBUG\LTM.OBJ|C:\USERS\JULIAN\REPOS\CORE\WIN\VC100\LUALIB__WIN32_DEBUG\LUA.OBJ|C:\USERS\JULIAN\REPOS\CORE\WIN\VC100\LUALIB__WIN32_DEBUG\LUNDUMP.OBJ|C:\USERS\JULIAN\REPOS\CORE\WIN\VC100\LUALIB__WIN32_DEBUG\LVM.OBJ|C:\USERS\JULIAN\REPOS\CORE\WIN\VC100\LUALIB__WIN32_DEBUG\LZIO.OBJ
C:\WINDOWS\GLOBALIZATION\SORTING\SORTDEFAULT.NLS
C:\WINDOWS\SYSTEM32\TZRES.DLL
C:\USERS\JULIAN\REPOS\CORE\WIN\VC100\LUALIB__WIN32_DEBUG\LAPI.OBJ
C:\USERS\JULIAN\REPOS\CORE\WIN\VC100\LUALIB__WIN32_DEBUG\LAUXLIB.OBJ
C:\USERS\JULIAN\REPOS\CORE\WIN\VC100\LUALIB__WIN32_DEBUG\LBASELIB.OBJ
C:\USERS\JULIAN\REPOS\CORE\WIN\VC100\LUALIB__WIN32_DEBUG\LBITLIB.OBJ
C:\USERS\JULIAN\REPOS\CORE\WIN\VC100\LUALIB__WIN32_DEBUG\LCODE.OBJ
C:\USERS\JULIAN\REPOS\CORE\WIN\VC100\LUALIB__WIN32_DEBUG\LCOROLIB.OBJ
C:\USERS\JULIAN\REPOS\CORE\WIN\VC100\LUALIB__WIN32_DEBUG\LCTYPE.OBJ
C:\USERS\JULIAN\REPOS\CORE\WIN\VC100\LUALIB__WIN32_DEBUG\LDBLIB.OBJ
C:\USERS\JULIAN\REPOS\CORE\WIN\VC100\LUALIB__WIN32_DEBUG\LDEBUG.OBJ
C:\USERS\JULIAN\REPOS\CORE\WIN\VC100\LUALIB__WIN32_DEBUG\LDO.OBJ
C:\USERS\JULIAN\REPOS\CORE\WIN\VC100\LUALIB__WIN32_DEBUG\LDUMP.OBJ
C:\USERS\JULIAN\REPOS\CORE\WIN\VC100\LUALIB__WIN32_DEBUG\LFUNC.OBJ
C:\USERS\JULIAN\REPOS\CORE\WIN\VC100\LUALIB__WIN32_DEBUG\LGC.OBJ
C:\USERS\JULIAN\REPOS\CORE\WIN\VC100\LUALIB__WIN32_DEBUG\LINIT.OBJ
C:\USERS\JULIAN\REPOS\CORE\WIN\VC100\LUALIB__WIN32_DEBUG\LIOLIB.OBJ
C:\USERS\JULIAN\REPOS\CORE\WIN\VC100\LUALIB__WIN32_DEBUG\LLEX.OBJ
C:\USERS\JULIAN\REPOS\CORE\WIN\VC100\LUALIB__WIN32_DEBUG\LMATHLIB.OBJ
C:\USERS\JULIAN\REPOS\CORE\WIN\VC100\LUALIB__WIN32_DEBUG\LMEM.OBJ
C:\USERS\JULIAN\REPOS\CORE\WIN\VC100\LUALIB__WIN32_DEBUG\LOADLIB.OBJ
C:\USERS\JULIAN\REPOS\CORE\WIN\VC100\LUALIB__WIN32_DEBUG\LOBJECT.OBJ
C:\USERS\JULIAN\REPOS\CORE\WIN\VC100\LUALIB__WIN32_DEBUG\LOPCODES.OBJ
C:\USERS\JULIAN\REPOS\CORE\WIN\VC100\LUALIB__WIN32_DEBUG\LOSLIB.OBJ
C:\USERS\JULIAN\REPOS\CORE\WIN\VC100\LUALIB__WIN32_DEBUG\LPARSER.OBJ
C:\USERS\JULIAN\REPOS\CORE\WIN\VC100\LUALIB__WIN32_DEBUG\LSTATE.OBJ
C:\USERS\JULIAN\REPOS\CORE\WIN\VC100\LUALIB__WIN32_DEBUG\LSTRING.OBJ
C:\USERS\JULIAN\REPOS\CORE\WIN\VC100\LUALIB__WIN32_DEBUG\LSTRLIB.OBJ
C:\USERS\JULIAN\REPOS\CORE\WIN\VC100\LUALIB__WIN32_DEBUG\LTABLE.OBJ
C:\USERS\JULIAN\REPOS\CORE\WIN\VC100\LUALIB__WIN32_DEBUG\LTABLIB.OBJ
C:\USERS\JULIAN\REPOS\CORE\WIN\VC100\LUALIB__WIN32_DEBUG\LTM.OBJ
C:\USERS\JULIAN\REPOS\CORE\WIN\VC100\LUALIB__WIN32_DEBUG\LUA.OBJ
C:\USERS\JULIAN\REPOS\CORE\WIN\VC100\LUALIB__WIN32_DEBUG\LUNDUMP.OBJ
C:\USERS\JULIAN\REPOS\CORE\WIN\VC100\LUALIB__WIN32_DEBUG\LVM.OBJ
C:\USERS\JULIAN\REPOS\CORE\WIN\VC100\LUALIB__WIN32_DEBUG\LZIO.OBJ
